{
	"name": "windows-api-exsample-12",
	"description": "WindowsAPI exsample 12.",
	"authors": ["dokutoku"],
	"copyright": "Copyright © 2021, dokutoku",
	"license": "proprietary",
	"targetType": "executable",
	"libs-windows":
	[
		"gdi32",
		"kernel32",
		"user32"
	],
	"sourceFiles-windows":["resource.res"],
	"preBuildCommands-windows": ["rc /n resource.rc"]
}