{
	"name": "wrapper-database",
	"description": "database library wrapper",
	"authors": ["dokutoku"],
	"copyright": "Copyright © 2021, dokutoku",
	"license": "CC0",
	"targetType": "library",
	"dependencies":
	{
		"database": ">=0.0.0"
	}
}