{
	"name": "windows-api-exsample-28",
	"description": "WindowsAPI exsample 28.",
	"authors": ["dokutoku"],
	"copyright": "Copyright © 2021, dokutoku",
	"license": "proprietary",
	"targetType": "executable",
	"libs-windows":
	[
		"gdi32",
		"kernel32",
		"user32"
	]
}