{
	"name": "dxlib-exsample-30",
	"authors": ["dokutoku"],
	"copyright": "Copyright © 2021, dokutoku",
	"description": "WindowsAPI exsample 30.",
	"license": "proprietary",
	"targetType": "executable",
	"dependencies":
	{
		"dxlib-d": ">=0.0.0"
	},
	"libs-windows-x86":
	[
		"../../lib/windows-vc/DxDrawFunc_vs2015_x86_MT",
		"../../lib/windows-vc/DxLib_vs2015_x86_MT",
		"../../lib/windows-vc/DxUseCLib_vs2015_x86_MT",
		"../../lib/windows-vc/celt_vs2015_x86_MT",
		"../../lib/windows-vc/libbulletcollision_vs2015_x86_MT",
		"../../lib/windows-vc/libbulletdynamics_vs2015_x86_MT",
		"../../lib/windows-vc/libbulletmath_vs2015_x86_MT",
		"../../lib/windows-vc/libjpeg_vs2015_x86_MT",
		"../../lib/windows-vc/libpng_vs2015_x86_MT",
		"../../lib/windows-vc/libtheora_static",
		"../../lib/windows-vc/libtiff_vs2015_x86_MT",
		"../../lib/windows-vc/ogg_static_vs2015_x86_MT",
		"../../lib/windows-vc/opus_vs2015_x86_MT",
		"../../lib/windows-vc/opusfile_vs2015_x86_MT",
		"../../lib/windows-vc/silk_common_vs2015_x86_MT",
		"../../lib/windows-vc/vorbis_static_vs2015_x86_MT",
		"../../lib/windows-vc/vorbisfile_static_vs2015_x86_MT",
		"../../lib/windows-vc/zlib_vs2015_x86_MT",
		"advapi32",
		"gdi32",
		"kernel32",
		"shell32",
		"user32"
	],
	"libs-windows-x86_64":
	[
		"../../lib/windows-vc/DxDrawFunc_x64_d",
		"../../lib/windows-vc/DxLib_vs2015_x64_MT",
		"../../lib/windows-vc/DxUseCLib_vs2015_x64_MT",
		"../../lib/windows-vc/celt_vs2015_x64_MT",
		"../../lib/windows-vc/libbulletcollision_vs2015_x64_MT",
		"../../lib/windows-vc/libbulletdynamics_vs2015_x64_MT",
		"../../lib/windows-vc/libbulletmath_vs2015_x64_MT",
		"../../lib/windows-vc/libjpeg_vs2015_x64_MT",
		"../../lib/windows-vc/libpng_vs2015_x64_MT",
		"../../lib/windows-vc/libtheora_static_x64_d",
		"../../lib/windows-vc/libtiff_vs2015_x64_MT",
		"../../lib/windows-vc/ogg_static_vs2015_x64_MT",
		"../../lib/windows-vc/opus_vs2015_x64_MT",
		"../../lib/windows-vc/opusfile_vs2015_x64_MT",
		"../../lib/windows-vc/silk_common_vs2015_x64_MT",
		"../../lib/windows-vc/vorbis_static_vs2015_x64_MT",
		"../../lib/windows-vc/vorbisfile_static_vs2015_x64_MT",
		"../../lib/windows-vc/zlib_vs2015_x64_MT",
		"advapi32",
		"gdi32",
		"kernel32",
		"shell32",
		"user32"
	],
	"lflags-windows": ["/NODEFAULTLIB:libcmtd.lib", "/NODEFAULTLIB:libc.lib", "/NODEFAULTLIB:libcd.lib"],
	"versions-windows": ["ANSI", "DX_MAKE"]
}